{"highscores":{"world":"","category":"achievements","vocation":"all","highscore_age":54,"highscore_list":[{"rank":1,"name":"Firdeso","vocation":"Master Sorcerer","world":"Secura","level":907,"value":1327},{"rank":2,"name":"Garoto Do Sorriso","vocation":"Elite Knight","world":"Yonabra","level":406,"value":1308},{"rank":3,"name":"Lord Strikee","vocation":"Elder Druid","world":"Secura","level":939,"value":1296},{"rank":4,"name":"Flanbers Penn","vocation":"Royal Paladin","world":"Yonabra","level":1446,"value":1282},{"rank":5,"name":"Ki Naitao Olim","vocation":"Elite Knight","world":"Gentebra","level":1588,"value":1281},{"rank":6,"name":"Aquiles Implacavel","vocation":"Elite Knight","world":"Quelibra","level":1061,"value":1278},{"rank":7,"name":"Dreams","vocation":"Elder Druid","world":"Yonabra","level":1094,"value":1277},{"rank":7,"name":"Marcus Eon","vocation":"Elite Knight","world":"Thyria","level":760,"value":1277},{"rank":7,"name":"Sibon Faur","vocation":"Elite Knight","world":"Vunira","level":1037,"value":1277},{"rank":10,"name":"Mente Brilhante","vocation":"Royal Paladin","world":"Gentebra","level":813,"value":1275},{"rank":11,"name":"Silent Kishi","vocation":"Elite Knight","world":"Venebra","level":924,"value":1271},{"rank":11,"name":"Zmuts","vocation":"Master Sorcerer","world":"Monza","level":1490,"value":1271},{"rank":13,"name":"Axy","vocation":"Elder Druid","world":"Astera","level":996,"value":1270},{"rank":13,"name":"Caaok","vocation":"Royal Paladin","world":"Belobra","level":1378,"value":1270},{"rank":15,"name":"Danan the shihan","vocation":"Elite Knight","world":"Quintera","level":1304,"value":1269},{"rank":15,"name":"Khamir","vocation":"Elder Druid","world":"Harmonia","level":1004,"value":1269},{"rank":17,"name":"Enduroman","vocation":"Elite Knight","world":"Harmonia","level":1044,"value":1268},{"rank":18,"name":"Prudii","vocation":"Royal Paladin","world":"Belobra","level":1152,"value":1267},{"rank":18,"name":"Veneficus","vocation":"Master Sorcerer","world":"Antica","level":1065,"value":1267},{"rank":18,"name":"Zyro'flame","vocation":"Master Sorcerer","world":"Pacera","level":1149,"value":1267},{"rank":21,"name":"Magao Evolutions","vocation":"Master Sorcerer","world":"Gentebra","level":980,"value":1266},{"rank":21,"name":"Osw aldo","vocation":"Royal Paladin","world":"Celebra","level":1419,"value":1266},{"rank":23,"name":"Lee kun","vocation":"Elder Druid","world":"Pacera","level":838,"value":1263},{"rank":24,"name":"Exterminador","vocation":"Master Sorcerer","world":"Inabra","level":1120,"value":1262},{"rank":25,"name":"Chronus Legacy","vocation":"Elite Knight","world":"Celebra","level":1038,"value":1261},{"rank":25,"name":"Mage Barker","vocation":"Elder Druid","world":"Quintera","level":887,"value":1261},{"rank":27,"name":"Hero Reis","vocation":"Royal Paladin","world":"Astera","level":1752,"value":1260},{"rank":28,"name":"Ezudux","vocation":"Royal Paladin","world":"Gladera","level":1373,"value":1259},{"rank":28,"name":"Wladek Slawek","vocation":"Elder Druid","world":"Celesta","level":748,"value":1259},{"rank":30,"name":"Haarin","vocation":"Elder Druid","world":"Monza","level":1367,"value":1258},{"rank":31,"name":"Ceris","vocation":"Elder Druid","world":"Refugia","level":1105,"value":1256},{"rank":31,"name":"Lormora","vocation":"Master Sorcerer","world":"Monza","level":1667,"value":1256},{"rank":31,"name":"Machinbear","vocation":"Elite Knight","world":"Celebra","level":734,"value":1256},{"rank":31,"name":"Quis","vocation":"Elite Knight","world":"Premia","level":888,"value":1256},{"rank":35,"name":"Magico Mago","vocation":"Master Sorcerer","world":"Nefera","level":1139,"value":1255},{"rank":35,"name":"Mangusia","vocation":"Elder Druid","world":"Antica","level":876,"value":1255},{"rank":37,"name":"Absurt Bakis","vocation":"Elder Druid","world":"Monza","level":987,"value":1254},{"rank":38,"name":"Janni","vocation":"Royal Paladin","world":"Secura","level":778,"value":1253},{"rank":38,"name":"Natth Morza","vocation":"Elite Knight","world":"Secura","level":851,"value":1253},{"rank":40,"name":"Horon Aoldas","vocation":"Master Sorcerer","world":"Vunira","level":452,"value":1252},{"rank":40,"name":"Kaia Nu Hima","vocation":"Royal Paladin","world":"Luminera","level":1086,"value":1252},{"rank":40,"name":"Witthen","vocation":"Elite Knight","world":"Calmera","level":768,"value":1252},{"rank":43,"name":"Niquit","vocation":"Master Sorcerer","world":"Thyria","level":1062,"value":1251},{"rank":43,"name":"Rado of Elera","vocation":"Elite Knight","world":"Vunira","level":829,"value":1251},{"rank":45,"name":"Swamplord Gypsy","vocation":"Elder Druid","world":"Marbera","level":1047,"value":1250},{"rank":46,"name":"Zeeh Forever","vocation":"Royal Paladin","world":"Gentebra","level":806,"value":1249},{"rank":47,"name":"Ninja","vocation":"Royal Paladin","world":"Yonabra","level":1095,"value":1248},{"rank":48,"name":"Daelif Nugget","vocation":"Elder Druid","world":"Secura","level":1824,"value":1247},{"rank":48,"name":"Tuuelhinha","vocation":"Elite Knight","world":"Belobra","level":750,"value":1247},{"rank":48,"name":"Viollah","vocation":"Elite Knight","world":"Gentebra","level":1459,"value":1247}],"highscore_page":{"current_page":1,"total_pages":20,"total_records":1000}},"information":{"api_version":3,"timestamp":"2023-02-02T17:43:42Z"}}